{
    "message": "Data found",
    "products": [
        {
            "id": 15,
            "name": "تي شيرت أزرق",
            "description": null,
            "price": 2900,
            "has_discount?": false,
            "discount": 0,
            "price_after_discount": 2900,
            "store_name": "Ahmed Store",
            "sub_category_id": 6,
            "sub_category_name": "boy's shirts",
            "status_label": "For sale",
            "status_value": 1
        },
        {
            "id": 14,
            "name": "شنطة سوداء",
            "description": null,
            "price": 7200,
            "has_discount?": false,
            "discount": 0,
            "price_after_discount": 7200,
            "store_name": "متجر عبدالله",
            "sub_category_id": 10,
            "sub_category_name": "bags",
            "status_label": "For sale",
            "status_value": 1
        },
        {
            "id": 13,
            "name": "أحذية بني",
            "description": null,
            "price": 8700,
            "has_discount?": false,
            "discount": 0,
            "price_after_discount": 8700,
            "store_name": "متجر عبدالله",
            "sub_category_id": 9,
            "sub_category_name": "shoes",
            "status_label": "For sale",
            "status_value": 1
        },
        {
            "id": 12,
            "name": "تي شيرت بناتي",
            "description": null,
            "price": 2000,
            "has_discount?": false,
            "discount": 0,
            "price_after_discount": 2000,
            "store_name": "متجر عبدالله",
            "sub_category_id": 8,
            "sub_category_name": "girls's shirts",
            "status_label": "For sale",
            "status_value": 1
        },
        {
            "id": 11,
            "name": "أحذية جلدية نسائية",
            "description": null,
            "price": 3600,
            "has_discount?": false,
            "discount": 0,
            "price_after_discount": 3600,
            "store_name": "متجر عبدالله",
            "sub_category_id": 9,
            "sub_category_name": "shoes",
            "status_label": "For sale",
            "status_value": 1
        },
        {
            "id": 10,
            "name": "بنطلون جينز أزرق",
            "description": null,
            "price": 4800,
            "has_discount?": false,
            "discount": 0,
            "price_after_discount": 4800,
            "store_name": "متجر السلام",
            "sub_category_id": 5,
            "sub_category_name": "boys pants",
            "status_label": "For sale",
            "status_value": 1
        },
        {
            "id": 9,
            "name": "شنطة جلدية",
            "description": null,
            "price": 3500,
            "has_discount?": false,
            "discount": 0,
            "price_after_discount": 3500,
            "store_name": "متجر حمدي",
            "sub_category_id": 10,
            "sub_category_name": "bags",
            "status_label": "For sale",
            "status_value": 1
        },
        {
            "id": 8,
            "name": "بنطلون أزرق نسائي",
            "description": null,
            "price": 3200,
            "has_discount?": false,
            "discount": 0,
            "price_after_discount": 3200,
            "store_name": "متجر عبدالله",
            "sub_category_id": 3,
            "sub_category_name": "women pants",
            "status_label": "For sale",
            "status_value": 1
        },
        {
            "id": 7,
            "name": "شنطة نسائية حمراء",
            "description": null,
            "price": 7700,
            "has_discount?": false,
            "discount": 0,
            "price_after_discount": 7700,
            "store_name": "متجر فوة",
            "sub_category_id": 10,
            "sub_category_name": "bags",
            "status_label": "For sale",
            "status_value": 1
        },
        {
            "id": 6,
            "name": "Leather Bag",
            "description": null,
            "price": 4500,
            "has_discount?": false,
            "discount": 0,
            "price_after_discount": 4500,
            "store_name": "متجر السيؤني",
            "sub_category_id": 10,
            "sub_category_name": "bags",
            "status_label": "For sale",
            "status_value": 1
        }
    ],
    "pagination": {
        "current_page": 1,
        "next_page": 2,
        "previous_page": null,
        "total_pages": 2,
        "per_page": 10,
        "total_entries": 15
    }
}
